<svg width="36" height="8" xmlns="http://www.w3.org/2000/svg">
  <title>Stars</title>
  <g fill="#232A76" fill-rule="evenodd">
    <path d="M4 6L1.649 7.236l.449-2.618L.196 2.764l2.628-.382L4 0l1.176 2.382 2.628.382-1.902 1.854.45 2.618zM18 6l-2.351 1.236.449-2.618-1.902-1.854 2.628-.382L18 0l1.176 2.382 2.628.382-1.902 1.854.45 2.618zM32 6l-2.351 1.236.449-2.618-1.902-1.854 2.628-.382L32 0l1.176 2.382 2.628.382-1.902 1.854.45 2.618z"/>
  </g>
</svg>