<svg width="26" height="7" xmlns="http://www.w3.org/2000/svg">
  <g transform="translate(1 1)" fill="none" fill-rule="evenodd">
    <circle cx="2.5" cy="2.5" r="2.5"/>
    <path d="M5.5 2.5h19M24.5 2.5l-10.8-3v6l10.8-3z" stroke-linecap="square"/>
  </g>
</svg>