<svg xmlns="http://www.w3.org/2000/svg" viewBox="0 0 24 14">
  <title>
    Vkontakte
  </title>
  <svg xmlns="http://www.w3.org/2000/svg" xmlns:xlink="http://www.w3.org/1999/xlink">
    <g fill="none" fill-rule="evenodd">
      <g fill="#516077" fill-rule="nonzero">
        <path d="M22.789,14 L19.221,14 C18.622,14 18.06,13.767 17.637,13.344 L15.561,11.268 C15.391,11.098 15.155,11 14.915,11 C14.411,11 14.001,11.41 14.001,11.914 L14.001,12.771 C14.001,13.449 13.45,14 12.772,14 L9.5,14 C7.21,14 3.532,8.856 0.849,4.541 C0.293,3.646 0,2.612 0,1.552 L0,1.297 C0,0.582 0.582,0 1.297,0 L4.5,0 C4.688,0 4.861,0.106 4.946,0.274 C5.649,1.662 7.631,5.423 8.353,6.146 C8.537,6.329 8.714,6.437 8.826,6.415 C8.892,6.409 8.954,6.367 9,6.324 L9,2.527 C9,1.998 8.794,1.502 8.42,1.128 L8.146,0.854 C8.003,0.711 7.96,0.496 8.038,0.309 C8.115,0.122 8.298,0 8.5,0 L12.906,0 C13.509,0 14,0.491 14,1.094 L14,6.209 C14.277,6.337 14.773,6.483 15.165,6.13 C15.584,5.75 16.629,3.667 17.825,0.822 C18.035,0.323 18.522,0 19.066,0 L22.574,0 C23.36,0 24,0.64 24,1.427 C24,2.232 23.723,3.022 23.22,3.651 L20,7.676 L20,8.294 L23.644,11.938 C23.991,12.285 24.094,12.802 23.906,13.255 C23.718,13.707 23.28,14 22.789,14 Z M14.914,10 C15.425,10 15.906,10.199 16.268,10.561 L18.344,12.637 C18.575,12.868 18.895,13 19.221,13 L22.789,13 C22.911,13 22.962,12.919 22.982,12.871 C23.002,12.823 23.023,12.729 22.937,12.643 L19.147,8.853 C19.053,8.76 19,8.633 19,8.5 L19,7.5 C19,7.386 19.039,7.276 19.109,7.187 L22.439,3.025 C22.801,2.574 23,2.006 23,1.427 C23,1.192 22.809,1 22.573,1 L19.065,1 C18.925,1 18.799,1.082 18.746,1.209 C17.808,3.438 16.542,6.23 15.835,6.87 C14.908,7.709 13.713,7.261 13.212,6.908 C13.079,6.816 13,6.663 13,6.5 L13,1.094 C13,1.042 12.958,1 12.906,1 L9.581,1 C9.854,1.457 10,1.981 10,2.527 L10,6.5 C10,6.591 9.976,6.68 9.929,6.757 C9.894,6.816 9.568,7.332 8.952,7.407 C8.512,7.463 8.069,7.276 7.646,6.853 C6.777,5.984 4.779,2.144 4.193,0.999 L1.297,0.999 C1.133,1 1,1.134 1,1.297 L1,1.552 C1,2.426 1.242,3.277 1.699,4.013 C5.145,9.556 8.134,13 9.5,13 L12.771,13 C12.897,13 13,12.897 13,12.771 L13,11.914 C13,10.859 13.859,10 14.914,10 Z"/>
      </g>
    </g>
  </svg>
</svg>